Data Visualization
…
## v ggplot2 3.0.0     v purrr   0.2.5
## v tibble  1.4.2     v dplyr   0.7.6
## v tidyr   0.8.1     v stringr 1.3.1
## v readr   1.1.1     v forcats 0.3.0

## -- Conflicts ------------------------------------------------------------------------------------------------------------------ tidyverse_conflicts() --
## x dplyr::filter() masks stats::filter()
## x dplyr::lag()    masks stats::lag()

We use an R built-in data mpg.

mpg

## # A tibble: 234 x 11
##    manufacturer model      displ  year   cyl trans      drv     cty   hwy fl    class  
##    <chr>        <chr>      <dbl> <int> <int> <chr>      <chr> <int> <int> <chr> <chr>  
##  1 audi         a4           1.8  1999     4 auto(l5)   f        18    29 p     compact
##  2 audi         a4           1.8  1999     4 manual(m5) f        21    29 p     compact
##  3 audi         a4           2    2008     4 manual(m6) f        20    31 p     compact
##  4 audi         a4           2    2008     4 auto(av)   f        21    30 p     compact
##  5 audi         a4           2.8  1999     6 auto(l5)   f        16    26 p     compact
##  6 audi         a4           2.8  1999     6 manual(m5) f        18    26 p     compact
##  7 audi         a4           3.1  2008     6 auto(av)   f        18    27 p     compact
##  8 audi         a4 quattro   1.8  1999     4 manual(m5) 4        18    26 p     compact
##  9 audi         a4 quattro   1.8  1999     4 auto(l5)   4        16    25 p     compact
## 10 audi         a4 quattro   2    2008     4 manual(m6) 4        20    28 p     compact
## # ... with 224 more rows
…
Statistical transformations (bar chart)

Bar chart is a very useful chart to describe data frequency which is of common interest for descriptive analysis. We illustrate bar chart using diamonds dataset from ggplot2 package.

diamonds

## # A tibble: 53,940 x 10
##    carat cut       color clarity depth table price     x     y     z
##    <dbl> <ord>     <ord> <ord>   <dbl> <dbl> <int> <dbl> <dbl> <dbl>
##  1 0.23  Ideal     E     SI2      61.5    55   326  3.95  3.98  2.43
##  2 0.21  Premium   E     SI1      59.8    61   326  3.89  3.84  2.31
##  3 0.23  Good      E     VS1      56.9    65   327  4.05  4.07  2.31
##  4 0.290 Premium   I     VS2      62.4    58   334  4.2   4.23  2.63
##  5 0.31  Good      J     SI2      63.3    58   335  4.34  4.35  2.75
##  6 0.24  Very Good J     VVS2     62.8    57   336  3.94  3.96  2.48
##  7 0.24  Very Good I     VVS1     62.3    57   336  3.95  3.98  2.47
##  8 0.26  Very Good H     SI1      61.9    55   337  4.07  4.11  2.53
##  9 0.22  Fair      E     VS2      65.1    61   337  3.87  3.78  2.49
## 10 0.23  Very Good H     VS1      59.4    61   338  4     4.05  2.39
## # ... with 53,930 more rows
…
