Text Mining and Sentiment Analysis
…
Sentiment analysis

Exercise  Trump Twitter data

We use ABC news data at Kaggle to demonstrate text mining and sentiment analysis. There are many good online tutorials and blogs for text mining in R. One of the best textbooks to read is Text Mining with R, which comprehensively illustrates the package tidytext, which is a tidy approach for text mining.

Load ABC News data

library(tidyverse)
library(tidytext)

abcnews <- read_csv("https://www.dropbox.com/s/wucdr914q9kzyd7/abcnews-date-text.csv?dl=1")
abcnews

## # A tibble: 1,103,663 x 2
##    publish_date headline_text                                     
##           <dbl> <chr>                                             
##  1     20030219 aba decides against community broadcasting licence
##  2     20030219 act fire witnesses must be aware of defamation    
##  3     20030219 a g calls for infrastructure protection summit    
##  4     20030219 air nz staff in aust strike for pay rise          
##  5     20030219 air nz strike to affect australian travellers     
##  6     20030219 ambitious olsson wins triple jump                 
##  7     20030219 antic delighted with record breaking barca        
##  8     20030219 aussie qualifier stosur wastes four memphis match 
##  9     20030219 aust addresses un security council over iraq      
## 10     20030219 australia is locked into war timetable opp        
## # ... with 1,103,653 more rows
…
colors: The default value is black. If you want to use different colors based on frequency, you can specify a vector of colors, or use one of the pre-defined color palettes. You can find a list here.

Back to top

Sentiment analysis

Sentiment data

We will use a tidy approach based on package tidytext to conduct sentiment analysis.

First, there is a important dataset called sentiments in this package. This dataset is essentially pre-built sentiment dictionary. Lets take a look.

sentiments

## # A tibble: 6,786 x 2
##    word        sentiment
##    <chr>       <chr>    
##  1 2-faces     negative 
##  2 abnormal    negative 
##  3 abolish     negative 
##  4 abominable  negative 
##  5 abominably  negative 
##  6 abominate   negative 
##  7 abomination negative 
##  8 abort       negative 
##  9 aborted     negative 
## 10 aborts      negative 
## # ... with 6,776 more rows
…
Sentiment analysis with inner join

Restructure the data

The first step is to restructure the data. In other words, we need to split sentences to every single word.

abcnews1<- abcnews %>% unnest_tokens(word, headline_text)
abcnews1

## # A tibble: 7,070,557 x 2
##    publish_date word        
##           <dbl> <chr>       
##  1     20030219 aba         
##  2     20030219 decides     
##  3     20030219 against     
##  4     20030219 community   
##  5     20030219 broadcasting
##  6     20030219 licence     
##  7     20030219 act         
##  8     20030219 fire        
##  9     20030219 witnesses   
## 10     20030219 must        
## # ... with 7,070,547 more rows

Overall sentiment with nrc lexicon

In order to know the sentiment category of our document data, we need to join it with the sentiment dataset we saw before. Inner join is commonly used for the joining.

# look at the words belong to "joy" from the sentiment data with nrc lexicon
nrc_joy <- get_sentiments("nrc") %>% 
  filter(sentiment == "joy")
nrc_joy

## # A tibble: 689 x 2
##    word          sentiment
##    <chr>         <chr>    
##  1 absolution    joy      
##  2 abundance     joy      
##  3 abundant      joy      
##  4 accolade      joy      
##  5 accompaniment joy      
##  6 accomplish    joy      
##  7 accomplished  joy      
##  8 achieve       joy      
##  9 achievement   joy      
## 10 acrobat       joy      
## # ... with 679 more rows

# count the words in our data that belong to "joy"
abcnews1 %>%
  inner_join(nrc_joy) %>%
  count(word, sort = TRUE)

## # A tibble: 602 x 2
##    word      n
##    <chr> <int>
##  1 found  7839
##  2 child  6655
##  3 sex    6582
##  4 labor  6458
##  5 deal   6356
##  6 pay    4885
##  7 green  3761
##  8 vote   3118
##  9 share  3100
## 10 food   2922
## # ... with 592 more rows
…
We first restructure our data with daily level, where we count the positive and negative sentiment for all news everyday. In the end, we create the column year so that we can further look at the sentiment for each year.

# I recommend you to run these part step by step to see what each line does
abcnews_sentiment_year <- abcnews1 %>%
  inner_join(get_sentiments("bing")) %>%
  count(publish_date, sentiment) %>%
  spread(sentiment, n, fill = 0) %>%
  mutate(sentiment = positive - negative) %>%
  mutate(year= substr(publish_date, 1, 4)) %>%
  group_by(year) %>%  # these three lines create an index column for each year.
  mutate(index=row_number(year)) %>%
  ungroup()
abcnews_sentiment_year

## # A tibble: 5,422 x 6
##    publish_date negative positive sentiment year  index
##           <dbl>    <dbl>    <dbl>     <dbl> <chr> <int>
##  1     20030219       79       39       -40 2003      1
##  2     20030220      110       49       -61 2003      2
##  3     20030221      104       67       -37 2003      3
##  4     20030222       51       27       -24 2003      4
##  5     20030223       62       26       -36 2003      5
##  6     20030224      113       54       -59 2003      6
##  7     20030225      109       45       -64 2003      7
##  8     20030226      112       45       -67 2003      8
##  9     20030227       88       50       -38 2003      9
## 10     20030228       98       56       -42 2003     10
## # ... with 5,412 more rows
…
Back to top

Exercise  Trump Twitter data

You can use the code below to import the data. The data is also available on Blackboard. You may also get the latest version with the most recent tweets at http://www.trumptwitterarchive.com/archive.

trumptwitter<- read_csv("https://www.dropbox.com/s/j0n9gu8mncmpocl/TrumpTwitter.csv?dl=1")
trumptwitter

## # A tibble: 46,608 x 7
##    source  text       created_at retweet_count favorite_count is_retweet  id_str
##    <chr>   <chr>      <chr>              <dbl>          <dbl> <lgl>        <dbl>
##  1 Twitte~ "RT @real~ 3/19/2020~         42992              0 TRUE       1.24e18
##  2 Twitte~ "https://~ 3/19/2020~         10226          42405 FALSE      1.24e18
##  3 Twitte~ "RT @FLOT~ 3/19/2020~         27302              0 TRUE       1.24e18
##  4 Twitte~ "America\~ 3/19/2020~         14988          59063 FALSE      1.24e18
##  5 Twitte~ "THANK YO~ 3/19/2020~         27241         140847 FALSE      1.24e18
##  6 Twitte~ "THANK YO~ 3/19/2020~         13910          58791 FALSE      1.24e18
##  7 Twitte~ "RT @Whit~ 3/19/2020~          6627              0 TRUE       1.24e18
##  8 Twitte~ "RT @Surg~ 3/19/2020~          5183              0 TRUE       1.24e18
##  9 Twitte~ "RT @Whit~ 3/19/2020~          9444              0 TRUE       1.24e18
## 10 Twitte~ "RT @Whit~ 3/19/2020~          6304              0 TRUE       1.24e18
## # ... with 46,598 more rows
…
